Chapter 12 Hurricane Dorian | Data Sciences Across the Disciplines: Geography
…
Pro Tips:

If you join data more than once (e.g. by re-running the same code block), R will create duplicate field names and start adding suffixes to them (e.g. .x, .y). If this happens to you, go back and recreate the data frame and then join only once.

Once a data frame is geographic, the geometry column is sticky: it stays with the data even if it is not explicitly selected. The only way to be rid of it is with a special st_drop_geometry() function. Fun fact: you cannot join two data frames by attribute (e.g. through left_join()) if they both have geometries.

Now, count the number of tweets per county and remove the geometry column as you do so.

tweet_counts <- tweet_points |> 
  st_drop_geometry() |> 
  count(GEOID)

tweet_counts

## # A tibble: 602 × 2
##    GEOID     n
##    <chr> <int>
##  1 01001     1
##  2 01003     5
##  3 01007     2
##  4 01015     6
##  5 01017     1
##  6 01021     1
##  7 01043     1
##  8 01045     1
##  9 01047     1
## 10 01051     3
## # ℹ 592 more rows
…
