Chapter 8 Life Expectancy and GDP | Mapping Hurricane Dorian Tracks and Twitter Hotspots
…
life_expectancy_sa <- life_expectancy |> 
  filter(country == "South Africa") |> 
  pivot_longer(-country, 
               names_to = "Year",
               values_to = "LifeExpectancy") |> 
  mutate(Year_Numeric = as.numeric(Year))

life_expectancy_sa

## # A tibble: 301 × 4
##    country      Year  LifeExpectancy Year_Numeric
##    <chr>        <chr>          <dbl>        <dbl>
##  1 South Africa 1800            33.5         1800
##  2 South Africa 1801            33.5         1801
##  3 South Africa 1802            33.5         1802
##  4 South Africa 1803            33.5         1803
##  5 South Africa 1804            33.5         1804
##  6 South Africa 1805            33.5         1805
##  7 South Africa 1806            33.5         1806
##  8 South Africa 1807            33.5         1807
##  9 South Africa 1808            33.5         1808
## 10 South Africa 1809            33.5         1809
## # ℹ 291 more rows
…
life_expectancy_random3 <- life_expectancy |> 
  filter(country %in% random3$country) |> 
  pivot_longer(-country, 
               names_to = "Year",
               values_to = "LifeExpectancy") |> 
  mutate(Year_Numeric = as.numeric(Year))

life_expectancy_random3

## # A tibble: 903 × 4
##    country Year  LifeExpectancy Year_Numeric
##    <chr>   <chr>          <dbl>        <dbl>
##  1 Grenada 1800            31.4         1800
##  2 Grenada 1801            31.4         1801
##  3 Grenada 1802            31.4         1802
##  4 Grenada 1803            31.4         1803
##  5 Grenada 1804            31.4         1804
##  6 Grenada 1805            31.4         1805
##  7 Grenada 1806            31.4         1806
##  8 Grenada 1807            31.4         1807
##  9 Grenada 1808            31.4         1808
## 10 Grenada 1809            31.4         1809
## # ℹ 893 more rows
…
Search “country by region plain text”

https://statisticstimes.com/geography/countries-by-continents.php

Save the table to cSV file

write_csv(region_data, here("data_public", "region_data.csv"))

Load region table from CSV file

region_data <- read_csv(here("data_public", "region_data.csv"))

region_data

## # A tibble: 249 × 7
##       No `Country or Area`   `ISO-alpha3 Code` `M49 Code` `Region 1`  `Region 2`
##    <dbl> <chr>               <chr>                  <dbl> <chr>       <chr>     
##  1     1 Afghanistan         AFG                        4 Southern A… <NA>      
##  2     2 Åland Islands       ALA                      248 Northern E… <NA>      
##  3     3 Albania             ALB                        8 Southern E… <NA>      
##  4     4 Algeria             DZA                       12 Northern A… <NA>      
##  5     5 American Samoa      ASM                       16 Polynesia   <NA>      
##  6     6 Andorra             AND                       20 Southern E… <NA>      
##  7     7 Angola              AGO                       24 Middle Afr… Sub-Sahar…
##  8     8 Anguilla            AIA                      660 Caribbean   Latin Ame…
##  9     9 Antarctica          ATA                       10 Antarctica  <NA>      
## 10    10 Antigua and Barbuda ATG                       28 Caribbean   Latin Ame…
## # ℹ 239 more rows
## # ℹ 1 more variable: Continent <chr>
…
There were some missing continent data!

Let’s inspect data with missing continent data.

all_country_data |> 
  filter(Year == 2000, is.na(Continent))

## # A tibble: 29 × 6
##    country               Year GDP_Per_Capita LifeExpectancy Population Continent
##    <chr>                <dbl>          <dbl>          <dbl>      <dbl> <chr>    
##  1 UAE                   2000          92400           69.1    3280000 <NA>     
##  2 Bolivia               2000           5390           66.5    8590000 <NA>     
##  3 Brunei                2000          74300           72.5     334000 <NA>     
##  4 Cote d'Ivoire         2000           4000           51.1   16800000 <NA>     
##  5 Congo, Dem. Rep.      2000            707           53.9   48600000 <NA>     
##  6 Congo, Rep.           2000           4580           53      3130000 <NA>     
##  7 Cape Verde            2000           4370           70.3     458000 <NA>     
##  8 Czech Republic        2000          24900           75.2   10200000 <NA>     
##  9 Micronesia, Fed. St…  2000           3450           62.6     112000 <NA>     
## 10 UK                    2000          39800           78     58900000 <NA>     
## # ℹ 19 more rows
…
