Chapter 5 OkCupid | Data Sciences Across the Disciplines: Geography
…
A large proportion of the folks who mentioned being good at a sport thought they had an athletic body type

5.7.3 Analyze word usage in essays

okcupid_data |> 
  unnest_tokens(input = essay2,
                output = "word") |> 
  count(word)

## # A tibble: 33,824 × 2
##    word       n
##    <chr>  <int>
##  1 0         41
##  2 0.13       1
##  3 0.334      1
##  4 0.99       1
##  5 00         6
##  6 000000     1
##  7 007        2
##  8 00am       1
##  9 00s        2
## 10 00t        1
## # ℹ 33,814 more rows

Let’s arrange the dataset to sort by n Also filter by stop_words

essay2word_counts <-
  okcupid_data |> 
  unnest_tokens(input = essay2,
                output = "word",
                format = "html") |> 
  count(word) |> 
  arrange(-n) |> 
  filter(!(word %in% stop_words$word))

essay2word_counts

## # A tibble: 31,253 × 2
##    word          n
##    <chr>     <int>
##  1 people    15118
##  2 cooking    7042
##  3 listening  6497
##  4 laugh      4776
##  5 love       4400
##  6 friends    3961
##  7 time       3899
##  8 pretty     3368
##  9 finding    3322
## 10 playing    3157
## # ℹ 31,243 more rows
…
Try again with essay 8

essay8word_counts <-
  okcupid_data |> 
  unnest_tokens(input = essay8,
                output = "word") |> 
  count(word) |> 
  arrange(-n) |> 
  filter(!(word %in% stop_words$word))

essay8word_counts

## # A tibble: 29,029 × 2
##    word        n
##    <chr>   <int>
##  1 <NA>    19214
##  2 br      16439
##  3 private  3858
##  4 love     2958
##  5 people   2420
##  6 time     2095
##  7 admit    1687
##  8 person   1656
##  9 life     1488
## 10 pretty   1480
## # ℹ 29,019 more rows
…
