Chapter 11 Shiny Apps | Data Sciences Across the Disciplines: Geography
…
Always save geocoding results as a data object and immediately save as a data file. You don’t want to repeat geocoding if at all possible.

saveRDS(college_data_with_locations,
        here("apps", "liberalarts", "LA_CollegesUS.RDS"))

Load geocoded results

college_data_with_locations <- readRDS(
  here("apps", "liberalarts", "LA_CollegesUS.RDS"))

Did everything geocode?

college_data_with_locations |> filter(is.na(lat))

## # A tibble: 27 × 44
##    `College Name`     State `IPEDS ID` `2023` `2022` `2021` `2020` `2019` `2018`
##    <chr>              <chr>      <dbl> <chr>  <chr>  <chr>  <chr>  <chr>  <chr> 
##  1 Franklin and Mars… PA        212577 39     42     43     38     36     39    
##  2 Sewanee-Universit… TN        221519 51     50     47     43     49     41    
##  3 Washington and Je… PA        216667 94     92     96     92     103    106   
##  4 Concordia College… MN        173300 145    141    130    132    127    117   
##  5 Ava Maria Univers… FL        442295 T2 (1… T2 (1… T2 (1… T2 (1… T2 (1… <NA>  
##  6 University of Pue… PR        243151 T2 (1… T2 (1… 166    <NA>   <NA>   <NA>  
##  7 Albert Magnus Col… CT        128498 <NA>   <NA>   <NA>   <NA>   <NA>   <NA>  
##  8 Albertson College  ID        142294 <NA>   <NA>   <NA>   <NA>   <NA>   <NA>  
##  9 Borromeo College … OH        203368 <NA>   <NA>   <NA>   <NA>   <NA>   <NA>  
## 10 Carson-Newman Col… TN        219806 <NA>   <NA>   <NA>   <NA>   <NA>   <NA>  
## # ℹ 17 more rows
## # ℹ 35 more variables: `2017` <chr>, `2016` <dbl>, `2015` <dbl>, `2014` <chr>,
## #   `2013` <chr>, `2012` <chr>, `2011` <dbl>, `2010` <dbl>, `2009` <dbl>,
## #   `2008` <chr>, `2007` <chr>, `2006` <chr>, `2005` <chr>, `2004` <chr>,
## #   `2003` <chr>, `2002` <dbl>, `2001` <chr>, `2000` <chr>, `1999` <chr>,
## #   `1998` <chr>, `1997` <chr>, `1996` <chr>, `1995` <chr>, `1994` <chr>,
## #   `1993` <chr>, `1992` <chr>, `1991` <chr>, `1990` <dbl>, `1989` <dbl>, …
…
college_ranks |> saveRDS(here("apps", "liberalarts", "collegeRanks.RDS"))

Filter ranks for a single college

selected_college_data <- college_ranks |>
  filter(`College Name` == "Middlebury College") 

selected_college_data

## # A tibble: 36 × 5
##    `College Name`      Year Ranking rankhigh ranklow
##    <chr>              <dbl> <chr>      <dbl>   <dbl>
##  1 Middlebury College  2023 11            11      11
##  2 Middlebury College  2022 9              9       9
##  3 Middlebury College  2021 9              9       9
##  4 Middlebury College  2020 7              7       7
##  5 Middlebury College  2019 5              5       5
##  6 Middlebury College  2018 6              6       6
##  7 Middlebury College  2017 4              4       4
##  8 Middlebury College  2016 4              4       4
##  9 Middlebury College  2015 7              7       7
## 10 Middlebury College  2014 4              4       4
## # ℹ 26 more rows
…
### Revisit map to show colleges with ranking data

n_rankings <- college_ranks |> count(`College Name`, sort = TRUE) 
n_rankings

## # A tibble: 356 × 2
##    `College Name`                       n
##    <chr>                            <int>
##  1 Wheaton College                     64
##  2 St. John's College                  59
##  3 Westminster College                 48
##  4 Amherst College                     38
##  5 Carleton College                    38
##  6 Haverford College                   38
##  7 Oberlin College and Conservatory    38
##  8 Pomona College                      38
##  9 Swarthmore College                  38
## 10 Wellesley College                   38
## # ℹ 346 more rows
…
