Chapter 7 Web Scraping | Data Sciences Across the Disciplines: Geography
…
Hold on, scrape a specific table

reg_season <- urloi |> 
  read_html() |> 
  html_element(xpath = "/html/body/div[2]/div/div[3]/main/div[3]/div[3]/div[1]/table[7]")  |> 
  html_table()

reg_season

## # A tibble: 25 × 23
##    Year  Team  Games Games Games Passing Passing Passing Passing Passing Passing
##    <chr> <chr> <chr> <chr> <chr> <chr>   <chr>   <chr>   <chr>   <chr>   <chr>  
##  1 Year  Team  GP    GS    Reco… Cmp     Att     Pct     Yds     Y/A     Lng    
##  2 2000  NE    1     0     —     1       3       33.3    6       2.0     6      
##  3 2001  NE    15    14    11–3  264     413     63.9    2,843   6.9     91     
##  4 2002  NE    16    16    9–7   373     601     62.1    3,764   6.3     49     
##  5 2003  NE    16    16    14–2  317     527     60.2    3,620   6.9     82     
##  6 2004  NE    16    16    14–2  288     474     60.8    3,692   7.8     50     
##  7 2005  NE    16    16    10–6  334     530     63.0    4,110   7.8     71     
##  8 2006  NE    16    16    12–4  319     516     61.8    3,529   6.8     62     
##  9 2007  NE    16    16    16–0  398     578     68.9    4,806   8.3     69     
## 10 2008  NE    1     1     1–0   7       11      63.6    76      6.9     26     
## # ℹ 15 more rows
## # ℹ 12 more variables: Passing <chr>, Passing <chr>, Passing <chr>,
## #   Rushing <chr>, Rushing <chr>, Rushing <chr>, Rushing <chr>, Rushing <chr>,
## #   Sacked <chr>, Sacked <chr>, Fumbles <chr>, Fumbles <chr>
…
Paste with a sep option!

brady_data_clean <- reg_season
paste(colnames(brady_data_clean), reg_season[1, ])

##  [1] "Year Year"    "Team Team"    "Games GP"     "Games GS"     "Games Record"
##  [6] "Passing Cmp"  "Passing Att"  "Passing Pct"  "Passing Yds"  "Passing Y/A" 
## [11] "Passing Lng"  "Passing TD"   "Passing Int"  "Passing Rtg"  "Rushing Att" 
## [16] "Rushing Yds"  "Rushing Y/A"  "Rushing Lng"  "Rushing TD"   "Sacked Sck"  
## [21] "Sacked Yds"   "Fumbles Fum"  "Fumbles Lost"

colnames(brady_data_clean) <- paste(colnames(reg_season), reg_season[1, ])
brady_data_clean

## # A tibble: 25 × 23
##    `Year Year` `Team Team` `Games GP` `Games GS` `Games Record` `Passing Cmp`
##    <chr>       <chr>       <chr>      <chr>      <chr>          <chr>        
##  1 Year        Team        GP         GS         Record         Cmp          
##  2 2000        NE          1          0          —              1            
##  3 2001        NE          15         14         11–3           264          
##  4 2002        NE          16         16         9–7            373          
##  5 2003        NE          16         16         14–2           317          
##  6 2004        NE          16         16         14–2           288          
##  7 2005        NE          16         16         10–6           334          
##  8 2006        NE          16         16         12–4           319          
##  9 2007        NE          16         16         16–0           398          
## 10 2008        NE          1          1          1–0            7            
## # ℹ 15 more rows
## # ℹ 17 more variables: `Passing Att` <chr>, `Passing Pct` <chr>,
## #   `Passing Yds` <chr>, `Passing Y/A` <chr>, `Passing Lng` <chr>,
## #   `Passing TD` <chr>, `Passing Int` <chr>, `Passing Rtg` <chr>,
## #   `Rushing Att` <chr>, `Rushing Yds` <chr>, `Rushing Y/A` <chr>,
## #   `Rushing Lng` <chr>, `Rushing TD` <chr>, `Sacked Sck` <chr>,
## #   `Sacked Yds` <chr>, `Fumbles Fum` <chr>, `Fumbles Lost` <chr>
…
