Chapter 4 Wrangle and graph New York City flights | Data Sciences Across the Disciplines: Geography
…
Chapter 4 Wrangle and graph New York City flights

Install the nycflights23 package, containing data on flights in and out of New York City’s airports in 2023.

The package does not contain any functions, just data.

install.packages("nycflights23")

Load the nycflights23 package

view flights

flights

## # A tibble: 435,352 × 19
##     year month   day dep_time sched_dep_time dep_delay arr_time sched_arr_time
##    <int> <int> <int>    <int>          <int>     <dbl>    <int>          <int>
##  1  2023     1     1        1           2038       203      328              3
##  2  2023     1     1       18           2300        78      228            135
##  3  2023     1     1       31           2344        47      500            426
##  4  2023     1     1       33           2140       173      238           2352
##  5  2023     1     1       36           2048       228      223           2252
##  6  2023     1     1      503            500         3      808            815
##  7  2023     1     1      520            510        10      948            949
##  8  2023     1     1      524            530        -6      645            710
##  9  2023     1     1      537            520        17      926            818
## 10  2023     1     1      547            545         2      845            852
## # ℹ 435,342 more rows
## # ℹ 11 more variables: arr_delay <dbl>, carrier <chr>, flight <int>,
## #   tailnum <chr>, origin <chr>, dest <chr>, air_time <dbl>, distance <dbl>,
## #   hour <dbl>, minute <dbl>, time_hour <dttm>
…
Manipulating data…

Let’s calculate the proportion of delayed flights

Data wrangling functions are English words that suggest what you’re doing with the data

Create a new column indicating whether flight was delayed

mutate function does this to a dataset.
Below, we calculate a new column, was_flight_delayed and fill it in with TRUE if arr_delay is greater than 0, and FALSE if it is not.

flights_with_delay <- mutate(flights, was_flight_delayed = arr_delay > 0)
flights_with_delay

## # A tibble: 435,352 × 20
##     year month   day dep_time sched_dep_time dep_delay arr_time sched_arr_time
##    <int> <int> <int>    <int>          <int>     <dbl>    <int>          <int>
##  1  2023     1     1        1           2038       203      328              3
##  2  2023     1     1       18           2300        78      228            135
##  3  2023     1     1       31           2344        47      500            426
##  4  2023     1     1       33           2140       173      238           2352
##  5  2023     1     1       36           2048       228      223           2252
##  6  2023     1     1      503            500         3      808            815
##  7  2023     1     1      520            510        10      948            949
##  8  2023     1     1      524            530        -6      645            710
##  9  2023     1     1      537            520        17      926            818
## 10  2023     1     1      547            545         2      845            852
## # ℹ 435,342 more rows
## # ℹ 12 more variables: arr_delay <dbl>, carrier <chr>, flight <int>,
## #   tailnum <chr>, origin <chr>, dest <chr>, air_time <dbl>, distance <dbl>,
## #   hour <dbl>, minute <dbl>, time_hour <dttm>, was_flight_delayed <lgl>
…
## # A tibble: 1 × 1
##   average_flight_delay
##                  <dbl>
## 1                 4.34

Out of all flights, the average delay is 4.34

But of the flights that are delayed, what is the average delay time?

filter can filter out rows of the dataset

only_delayed_flights <- filter(flights, arr_delay > 0)
only_delayed_flights

## # A tibble: 141,574 × 19
##     year month   day dep_time sched_dep_time dep_delay arr_time sched_arr_time
##    <int> <int> <int>    <int>          <int>     <dbl>    <int>          <int>
##  1  2023     1     1        1           2038       203      328              3
##  2  2023     1     1       18           2300        78      228            135
##  3  2023     1     1       31           2344        47      500            426
##  4  2023     1     1       33           2140       173      238           2352
##  5  2023     1     1       36           2048       228      223           2252
##  6  2023     1     1      537            520        17      926            818
##  7  2023     1     1      549            559       -10      905            901
##  8  2023     1     1      605            600         5      906            855
##  9  2023     1     1      611            530        41      923            839
## 10  2023     1     1      619            620        -1      751            745
## # ℹ 141,564 more rows
## # ℹ 11 more variables: arr_delay <dbl>, carrier <chr>, flight <int>,
## #   tailnum <chr>, origin <chr>, dest <chr>, air_time <dbl>, distance <dbl>,
## #   hour <dbl>, minute <dbl>, time_hour <dttm>
…
